{"number":1,"size":10,"totalPages":5,"totalElements":50,"content":[{"label":"Transaction 1","operationDate":"2024-03-28","valueDate":"2024-03-28","transactionReference":"REF123","transactionType":"debit","amount":100,"balanceAfterTransaction":500},{"label":"Transaction 2","operationDate":"2024-03-27","valueDate":"2024-03-27","transactionReference":"REF456","transactionType":"credit","amount":200,"balanceAfterTransaction":700}]}
